…
```
## `summarise()` has grouped output by 'data_generation'. You can override using
## the `.groups` argument.
```

```r
print(summarised_df, n=20)
```

```
## # A tibble: 80 × 8
## # Groups:   data_generation [12]
##    data_generation data_fitted mean_point mean_ci_length_norm coverage_ci_norm
##    <chr>           <chr>            <dbl>               <dbl>            <dbl>
##  1 Hurdleztgeom    correct          1008.               168.             0.938
##  2 Hurdleztgeom    negbin           1003.               340.             0.927
##  3 Hurdleztgeom    oizt              873.                69.7            0    
##  4 Hurdleztgeom    poisson           700.                24.1            0    
##  5 Hurdleztgeom    wrong_link       1008.               168.             0.938
##  6 Hurdleztgeom    ztHurdle         1094.               220.             0.654
##  7 Hurdleztgeom    ztoi              874.                78.9            0    
##  8 Hurdleztnegbin  correct           999.               236.             0.914
##  9 Hurdleztnegbin  geom             1188.               181.             0.004
## 10 Hurdleztnegbin  oizt              990.               181.             0.864
## 11 Hurdleztnegbin  poisson           816.                22.2            0    
## 12 Hurdleztnegbin  wrong_link        999.               237.             0.918
## 13 Hurdleztnegbin  ztHurdle     23285419.          56970543.             0.934
## 14 Hurdleztnegbin  ztoi            64086.             34427.             0.908
## 15 Hurdleztpoisson correct          1002.               104.             0.964
## 16 Hurdleztpoisson geometric        2279.               820.             0    
## 17 Hurdleztpoisson oizt              908.                42.5            0    
## 18 Hurdleztpoisson wrong_link       1003.               103.             0.962
## 19 Hurdleztpoisson ztHurdle         1057.               140.             0.687
## 20 Hurdleztpoisson ztoi              908.                42.5            0    
## # ℹ 60 more rows
## # ℹ 3 more variables: mean_ci_length_log_norm <dbl>,
## #   coverage_ci_log_norm <dbl>, succesful_fits <dbl>
```
…
